<?xml version="1.0" encoding="UTF-8"?>
<mxfile host="app.diagrams.net" modified="2020-07-14T14:24:36.905Z" agent="5.0 (X11)" etag="D2fjkuyeA3MQ4BhPr2sT" version="13.4.2" type="google">
  <diagram id="ZvLYto8bPKoRZCGEUqkS" name="Page-1">
    <mxGraphModel dx="1102" dy="624" grid="1" gridSize="10" guides="1" tooltips="1" connect="1" arrows="1" fold="1" page="1" pageScale="1" pageWidth="1169" pageHeight="827" math="0" shadow="0">
      <root>
        <mxCell id="0" />
        <mxCell id="1" parent="0" />
        <mxCell id="yZ-knzzxDj9rqVdo9JfT-4" value="&lt;b&gt;Komek2020 Deployment Diagram&lt;/b&gt;" style="shape=umlFrame;whiteSpace=wrap;html=1;width=210;height=30;deletable=0;rotatable=0;cloneable=0;resizable=0;movable=1;" parent="1" vertex="1">
          <mxGeometry x="30" y="990" width="1150" height="810" as="geometry" />
        </mxCell>
        <mxCell id="yZ-knzzxDj9rqVdo9JfT-26" value="&amp;lt;&amp;lt;device&amp;gt;&amp;gt;&lt;br&gt;&lt;u&gt;:Production Server&lt;/u&gt;" style="verticalAlign=top;align=center;spacingTop=8;spacingLeft=2;spacingRight=12;shape=cube;size=10;direction=south;fontStyle=0;html=1;fillColor=none;" parent="1" vertex="1">
          <mxGeometry x="160" y="75" width="930" height="530" as="geometry" />
        </mxCell>
        <mxCell id="yZ-knzzxDj9rqVdo9JfT-2" value="&amp;lt;&amp;lt;docker container&amp;gt;&amp;gt;&lt;br&gt;&lt;u&gt;:frontend&lt;/u&gt;" style="verticalAlign=top;align=center;spacingTop=8;spacingLeft=2;spacingRight=12;shape=cube;size=10;direction=south;fontStyle=0;html=1;" parent="1" vertex="1">
          <mxGeometry x="240" y="145" width="230" height="160" as="geometry" />
        </mxCell>
        <mxCell id="yZ-knzzxDj9rqVdo9JfT-3" value="User" style="shape=umlActor;verticalLabelPosition=bottom;verticalAlign=top;html=1;" parent="1" vertex="1">
          <mxGeometry x="50" y="195" width="30" height="60" as="geometry" />
        </mxCell>
        <mxCell id="yZ-knzzxDj9rqVdo9JfT-1" value="nginx" style="shape=module;align=left;spacingLeft=20;align=center;verticalAlign=top;" parent="1" vertex="1">
          <mxGeometry x="305" y="200" width="100" height="50" as="geometry" />
        </mxCell>
        <mxCell id="yZ-knzzxDj9rqVdo9JfT-12" style="edgeStyle=orthogonalEdgeStyle;rounded=0;orthogonalLoop=1;jettySize=auto;html=1;endArrow=none;endFill=0;strokeColor=#000000;entryX=0.25;entryY=1;entryDx=0;entryDy=0;" parent="1" source="yZ-knzzxDj9rqVdo9JfT-10" target="yZ-knzzxDj9rqVdo9JfT-1" edge="1">
          <mxGeometry relative="1" as="geometry">
            <Array as="points">
              <mxPoint x="280" y="330" />
              <mxPoint x="330" y="330" />
            </Array>
          </mxGeometry>
        </mxCell>
        <mxCell id="yZ-knzzxDj9rqVdo9JfT-10" value="«file»&lt;br&gt;&lt;b&gt;SSL Cert&lt;/b&gt;" style="html=1;dropTarget=0;align=center;" parent="1" vertex="1">
          <mxGeometry x="240" y="360" width="80" height="90" as="geometry" />
        </mxCell>
        <mxCell id="yZ-knzzxDj9rqVdo9JfT-11" value="" style="shape=component;jettyWidth=8;jettyHeight=4;" parent="yZ-knzzxDj9rqVdo9JfT-10" vertex="1">
          <mxGeometry x="1" width="20" height="20" relative="1" as="geometry">
            <mxPoint x="-27" y="7" as="offset" />
          </mxGeometry>
        </mxCell>
        <mxCell id="yZ-knzzxDj9rqVdo9JfT-13" value="" style="rounded=0;orthogonalLoop=1;jettySize=auto;html=1;endArrow=none;endFill=0;strokeColor=#000000;" parent="1" source="yZ-knzzxDj9rqVdo9JfT-3" target="yZ-knzzxDj9rqVdo9JfT-15" edge="1">
          <mxGeometry relative="1" as="geometry">
            <mxPoint x="175" y="320" as="sourcePoint" />
          </mxGeometry>
        </mxCell>
        <mxCell id="yZ-knzzxDj9rqVdo9JfT-14" value="" style="rounded=0;orthogonalLoop=1;jettySize=auto;html=1;endArrow=halfCircle;endFill=0;entryX=0.5;entryY=0.5;entryDx=0;entryDy=0;endSize=6;strokeWidth=1;" parent="1" source="yZ-knzzxDj9rqVdo9JfT-1" target="yZ-knzzxDj9rqVdo9JfT-15" edge="1">
          <mxGeometry relative="1" as="geometry">
            <mxPoint x="215" y="320" as="sourcePoint" />
          </mxGeometry>
        </mxCell>
        <mxCell id="yZ-knzzxDj9rqVdo9JfT-15" value="HTTPS" style="ellipse;whiteSpace=wrap;html=1;fontFamily=Helvetica;fontSize=12;fontColor=#000000;align=center;strokeColor=#000000;fillColor=#ffffff;points=[];aspect=fixed;resizable=0;labelPosition=center;verticalLabelPosition=top;verticalAlign=bottom;" parent="1" vertex="1">
          <mxGeometry x="113" y="220" width="10" height="10" as="geometry" />
        </mxCell>
        <mxCell id="yZ-knzzxDj9rqVdo9JfT-16" value="&amp;lt;&amp;lt;docker container&amp;gt;&amp;gt;&lt;br&gt;&lt;u&gt;:backend&lt;/u&gt;" style="verticalAlign=top;align=center;spacingTop=8;spacingLeft=2;spacingRight=12;shape=cube;size=10;direction=south;fontStyle=0;html=1;" parent="1" vertex="1">
          <mxGeometry x="520" y="145" width="230" height="160" as="geometry" />
        </mxCell>
        <mxCell id="yZ-knzzxDj9rqVdo9JfT-44" style="edgeStyle=none;rounded=0;orthogonalLoop=1;jettySize=auto;html=1;exitX=0.5;exitY=1;exitDx=0;exitDy=0;endArrow=none;endFill=0;strokeColor=#000000;" parent="1" source="yZ-knzzxDj9rqVdo9JfT-17" target="yZ-knzzxDj9rqVdo9JfT-42" edge="1">
          <mxGeometry relative="1" as="geometry" />
        </mxCell>
        <mxCell id="yZ-knzzxDj9rqVdo9JfT-17" value="jar" style="shape=module;align=left;spacingLeft=20;align=center;verticalAlign=top;" parent="1" vertex="1">
          <mxGeometry x="585" y="200" width="100" height="50" as="geometry" />
        </mxCell>
        <mxCell id="yZ-knzzxDj9rqVdo9JfT-18" value="&amp;lt;&amp;lt;docker container&amp;gt;&amp;gt;&lt;br&gt;&lt;u&gt;:database&lt;/u&gt;" style="verticalAlign=top;align=center;spacingTop=8;spacingLeft=2;spacingRight=12;shape=cube;size=10;direction=south;fontStyle=0;html=1;" parent="1" vertex="1">
          <mxGeometry x="800" y="145" width="230" height="160" as="geometry" />
        </mxCell>
        <mxCell id="yZ-knzzxDj9rqVdo9JfT-41" style="rounded=0;orthogonalLoop=1;jettySize=auto;html=1;endArrow=none;endFill=0;strokeColor=#000000;" parent="1" source="yZ-knzzxDj9rqVdo9JfT-19" target="yZ-knzzxDj9rqVdo9JfT-40" edge="1">
          <mxGeometry relative="1" as="geometry" />
        </mxCell>
        <mxCell id="yZ-knzzxDj9rqVdo9JfT-19" value="postgres" style="shape=module;align=left;spacingLeft=20;align=center;verticalAlign=top;" parent="1" vertex="1">
          <mxGeometry x="865" y="200" width="100" height="50" as="geometry" />
        </mxCell>
        <mxCell id="yZ-knzzxDj9rqVdo9JfT-20" value="" style="rounded=0;orthogonalLoop=1;jettySize=auto;html=1;endArrow=none;endFill=0;strokeColor=#000000;" parent="1" source="yZ-knzzxDj9rqVdo9JfT-17" target="yZ-knzzxDj9rqVdo9JfT-22" edge="1">
          <mxGeometry relative="1" as="geometry">
            <mxPoint x="715" y="340" as="sourcePoint" />
          </mxGeometry>
        </mxCell>
        <mxCell id="yZ-knzzxDj9rqVdo9JfT-21" value="" style="rounded=0;orthogonalLoop=1;jettySize=auto;html=1;endArrow=halfCircle;endFill=0;entryX=0.5;entryY=0.5;entryDx=0;entryDy=0;endSize=6;strokeWidth=1;" parent="1" source="yZ-knzzxDj9rqVdo9JfT-19" target="yZ-knzzxDj9rqVdo9JfT-22" edge="1">
          <mxGeometry relative="1" as="geometry">
            <mxPoint x="755" y="340" as="sourcePoint" />
          </mxGeometry>
        </mxCell>
        <mxCell id="yZ-knzzxDj9rqVdo9JfT-22" value="SQL" style="ellipse;whiteSpace=wrap;html=1;fontFamily=Helvetica;fontSize=12;fontColor=#000000;align=center;strokeColor=#000000;fillColor=#ffffff;points=[];aspect=fixed;resizable=0;labelPosition=center;verticalLabelPosition=top;verticalAlign=bottom;" parent="1" vertex="1">
          <mxGeometry x="770" y="220" width="10" height="10" as="geometry" />
        </mxCell>
        <mxCell id="yZ-knzzxDj9rqVdo9JfT-23" value="" style="rounded=0;orthogonalLoop=1;jettySize=auto;html=1;endArrow=none;endFill=0;strokeColor=#000000;" parent="1" source="yZ-knzzxDj9rqVdo9JfT-1" target="yZ-knzzxDj9rqVdo9JfT-17" edge="1">
          <mxGeometry relative="1" as="geometry">
            <mxPoint x="560" y="225" as="sourcePoint" />
            <mxPoint x="560" y="225" as="targetPoint" />
          </mxGeometry>
        </mxCell>
        <mxCell id="yZ-knzzxDj9rqVdo9JfT-32" style="edgeStyle=orthogonalEdgeStyle;rounded=0;orthogonalLoop=1;jettySize=auto;html=1;entryX=0.75;entryY=1;entryDx=0;entryDy=0;endArrow=none;endFill=0;strokeColor=#000000;" parent="1" source="yZ-knzzxDj9rqVdo9JfT-28" target="yZ-knzzxDj9rqVdo9JfT-1" edge="1">
          <mxGeometry relative="1" as="geometry">
            <Array as="points">
              <mxPoint x="440" y="330" />
              <mxPoint x="380" y="330" />
            </Array>
          </mxGeometry>
        </mxCell>
        <mxCell id="yZ-knzzxDj9rqVdo9JfT-28" value="«file»&lt;br&gt;&lt;b&gt;CSS, JS, etc&lt;/b&gt;" style="html=1;dropTarget=0;align=center;" parent="1" vertex="1">
          <mxGeometry x="400" y="360" width="80" height="90" as="geometry" />
        </mxCell>
        <mxCell id="yZ-knzzxDj9rqVdo9JfT-29" value="" style="shape=component;jettyWidth=8;jettyHeight=4;" parent="yZ-knzzxDj9rqVdo9JfT-28" vertex="1">
          <mxGeometry x="1" width="20" height="20" relative="1" as="geometry">
            <mxPoint x="-27" y="7" as="offset" />
          </mxGeometry>
        </mxCell>
        <mxCell id="yZ-knzzxDj9rqVdo9JfT-37" style="edgeStyle=orthogonalEdgeStyle;rounded=0;orthogonalLoop=1;jettySize=auto;html=1;entryX=0.5;entryY=1;entryDx=0;entryDy=0;endArrow=none;endFill=0;strokeColor=#000000;" parent="1" source="yZ-knzzxDj9rqVdo9JfT-35" target="yZ-knzzxDj9rqVdo9JfT-1" edge="1">
          <mxGeometry relative="1" as="geometry" />
        </mxCell>
        <mxCell id="yZ-knzzxDj9rqVdo9JfT-35" value="«file»&lt;br&gt;&lt;b&gt;External JS&lt;/b&gt;" style="html=1;dropTarget=0;align=center;" parent="1" vertex="1">
          <mxGeometry x="315" y="640" width="80" height="90" as="geometry" />
        </mxCell>
        <mxCell id="yZ-knzzxDj9rqVdo9JfT-36" value="" style="shape=component;jettyWidth=8;jettyHeight=4;" parent="yZ-knzzxDj9rqVdo9JfT-35" vertex="1">
          <mxGeometry x="1" width="20" height="20" relative="1" as="geometry">
            <mxPoint x="-27" y="7" as="offset" />
          </mxGeometry>
        </mxCell>
        <mxCell id="yZ-knzzxDj9rqVdo9JfT-39" style="edgeStyle=orthogonalEdgeStyle;rounded=0;orthogonalLoop=1;jettySize=auto;html=1;endArrow=none;endFill=0;strokeColor=#000000;curved=1;dashed=1;" parent="1" source="yZ-knzzxDj9rqVdo9JfT-38" target="yZ-knzzxDj9rqVdo9JfT-35" edge="1">
          <mxGeometry relative="1" as="geometry" />
        </mxCell>
        <mxCell id="yZ-knzzxDj9rqVdo9JfT-38" value="Google and Yandex analitics, etc" style="shape=note;whiteSpace=wrap;html=1;size=14;verticalAlign=middle;align=left;spacingTop=-6;" parent="1" vertex="1">
          <mxGeometry x="40" y="640" width="156" height="110" as="geometry" />
        </mxCell>
        <mxCell id="yZ-knzzxDj9rqVdo9JfT-40" value="database" style="shape=cylinder;whiteSpace=wrap;html=1;boundedLbl=1;backgroundOutline=1;fillColor=none;align=center;" parent="1" vertex="1">
          <mxGeometry x="885" y="365" width="60" height="80" as="geometry" />
        </mxCell>
        <mxCell id="yZ-knzzxDj9rqVdo9JfT-42" value="«file»&lt;br&gt;&lt;b&gt;Configuration&lt;/b&gt;" style="html=1;dropTarget=0;align=center;" parent="1" vertex="1">
          <mxGeometry x="595" y="360" width="80" height="90" as="geometry" />
        </mxCell>
        <mxCell id="yZ-knzzxDj9rqVdo9JfT-43" value="" style="shape=component;jettyWidth=8;jettyHeight=4;" parent="yZ-knzzxDj9rqVdo9JfT-42" vertex="1">
          <mxGeometry x="1" width="20" height="20" relative="1" as="geometry">
            <mxPoint x="-27" y="7" as="offset" />
          </mxGeometry>
        </mxCell>
      </root>
    </mxGraphModel>
  </diagram>
</mxfile>
